…
While these are extreme examples, this also gives an idea of a first step at fixing these problems if they pop up: if you fit a model and you get divergences, the first thing you can try is to increase adapt_delta (in fact, Stan will suggest as much to you if this happens). If you’re bumping up against max_treedepth, increase max_treedepth! If either of these don’t solve the problem, then you’ll need to start think about the specification of your model, which we’ll cover a little later. Note though that both increasing adapt_delta and max_treedepth can dramatically increase your model runtime, so it’s not necessarily a good idea just to crank these things up to high values in order to be conservative.

Parameter Diagnostics

Now that we’ve taken a look at the highest-level red flags (divergences and treedepth) and satisfied ourselves that we’re in the clear, we can start to diagnose individual parameter estimates. There are a lot of ways to look at the these, the most useful starting point in my opinion is to extract summary statistics on each model parameter. You can do that by summary(my_model)$summary. summary on it’s own prints out summaries of each parameter, the $summary part allows you to access and store the data behind the printed statistics. As you’ll notice throughout this, I spend a bit of time getting my results out of the stanfit object and into a tidy format. You don’t have to do this, but I find it makes life much easier.

 bh_summary <- summary(bh_fit)$summary %>% 
  as.data.frame() %>% 
  mutate(variable = rownames(.)) %>% 
  select(variable, everything()) %>% 
  as_data_frame()

bh_summary

## # A tibble: 109 x 11
##    variable      mean se_mean       sd   `2.5%`    `25%`    `50%`    `75%`
##    <chr>        <dbl>   <dbl>    <dbl>    <dbl>    <dbl>    <dbl>    <dbl>
##  1 h          6.15e⁻¹ 2.10e⁻³  8.13e⁻²  4.73e⁻¹  5.57e⁻¹  6.08e⁻¹  6.66e⁻¹
##  2 alpha      1.34e⁺⁷ 2.79e⁺⁴  1.36e⁺⁶  1.07e⁺⁷  1.25e⁺⁷  1.35e⁺⁷  1.44e⁺⁷
##  3 sigma      1.24e⁺⁰ 3.90e⁻³  1.51e⁻¹  9.90e⁻¹  1.14e⁺⁰  1.23e⁺⁰  1.33e⁺⁰
##  4 rhat[1]    3.88e⁺⁶ 2.98e⁺⁴  1.06e⁺⁶  2.41e⁺⁶  3.15e⁺⁶  3.67e⁺⁶  4.39e⁺⁶
##  5 rhat[2]    2.46e⁺⁶ 2.39e⁺⁴  8.15e⁺⁵  1.43e⁺⁶  1.92e⁺⁶  2.28e⁺⁶  2.81e⁺⁶
##  6 rhat[3]    2.92e⁺⁶ 2.63e⁺⁴  9.08e⁺⁵  1.74e⁺⁶  2.31e⁺⁶  2.74e⁺⁶  3.33e⁺⁶
##  7 rhat[4]    1.52e⁺⁶ 1.75e⁺⁴  5.79e⁺⁵  8.42e⁺⁵  1.15e⁺⁶  1.39e⁺⁶  1.74e⁺⁶
##  8 rhat[5]    6.14e⁺⁵ 8.44e⁺³  2.72e⁺⁵  3.24e⁺⁵  4.51e⁺⁵  5.51e⁺⁵  7.01e⁺⁵
##  9 rhat[6]    7.77e⁺⁵ 1.03e⁺⁴  3.34e⁺⁵  4.13e⁺⁵  5.74e⁺⁵  7.00e⁺⁵  8.87e⁺⁵
## 10 rhat[7]    1.78e⁺⁶ 1.95e⁺⁴  6.53e⁺⁵  1.00e⁺⁶  1.36e⁺⁶  1.64e⁺⁶  2.04e⁺⁶
## # ... with 99 more rows, and 3 more variables: `97.5%` <dbl>, n_eff <dbl>,
## #   Rhat <dbl>
…
