…
validate <- gapminder %>%
crossv_mc(20, test = 0.25)

test_data <- list(test_training = list(validate), model = model_frame$model)

test_data <- cross_d(test_data) %>%
unnest(test_training, .drop = F, .id = 'model_number') %>%
mutate(model_number = as.numeric(model_number)) %>%
left_join(data_frame(model_number = c(1:4), model_name = c('simple','medium', 'more','woah')), by = 'model_number')

## Warning: `cross_d()` is deprecated; please use `cross_df()` instead.

test_data

## # A tibble: 80 x 6
##    model         model_number train          test         .id   model_name
##    <list>               <dbl> <list>         <list>       <chr> <chr>     
##  1 <S3: formula>         1.00 <S3: resample> <S3: resamp… 01    simple    
##  2 <S3: formula>         1.00 <S3: resample> <S3: resamp… 02    simple    
##  3 <S3: formula>         1.00 <S3: resample> <S3: resamp… 03    simple    
##  4 <S3: formula>         1.00 <S3: resample> <S3: resamp… 04    simple    
##  5 <S3: formula>         1.00 <S3: resample> <S3: resamp… 05    simple    
##  6 <S3: formula>         1.00 <S3: resample> <S3: resamp… 06    simple    
##  7 <S3: formula>         1.00 <S3: resample> <S3: resamp… 07    simple    
##  8 <S3: formula>         1.00 <S3: resample> <S3: resamp… 08    simple    
##  9 <S3: formula>         1.00 <S3: resample> <S3: resamp… 09    simple    
## 10 <S3: formula>         1.00 <S3: resample> <S3: resamp… 10    simple    
## # ... with 70 more rows

In a few lines of code, we now have “tidy” cross validation routine across multiple models, not bad.

test_data <- test_data %>%
mutate(fit = map2(model, train, ~lm(.x, data = .y))) %>%
mutate(root_mean_sq_error = map2_dbl(fit, test, rmse))

test_data

## # A tibble: 80 x 8
##    model  model_number train test  .id   model_name fit   root_mean_sq_er…
##    <list>        <dbl> <lis> <lis> <chr> <chr>      <lis>            <dbl>
##  1 <S3: …         1.00 <S3:… <S3:… 01    simple     <S3:…            11.3 
##  2 <S3: …         1.00 <S3:… <S3:… 02    simple     <S3:…            10.4 
##  3 <S3: …         1.00 <S3:… <S3:… 03    simple     <S3:…            10.1 
##  4 <S3: …         1.00 <S3:… <S3:… 04    simple     <S3:…            10.7 
##  5 <S3: …         1.00 <S3:… <S3:… 05    simple     <S3:…            10.5 
##  6 <S3: …         1.00 <S3:… <S3:… 06    simple     <S3:…             9.73
##  7 <S3: …         1.00 <S3:… <S3:… 07    simple     <S3:…             9.60
##  8 <S3: …         1.00 <S3:… <S3:… 08    simple     <S3:…            10.1 
##  9 <S3: …         1.00 <S3:… <S3:… 09    simple     <S3:…            11.3 
## 10 <S3: …         1.00 <S3:… <S3:… 10    simple     <S3:…            10.9 
## # ... with 70 more rows
…
diagnose_length <- length_data %>% 
  map(~possibly_log(.$lengths))

listviewer::jsonedit(diagnose_length)

Find and Convert Factors

Factors can creep into your data, which can cause problem sometimes. There’s lot’s of ways to solve this, but you can use purrr to efficiently check for factors, and convert them to characters in your data frame.

Let’s take a look at the gapminder dataset, from the gapminder package.

gapminder

## # A tibble: 1,704 x 6
##    country     continent  year lifeexp      pop gdppercap
##    <fct>       <fct>     <int>   <dbl>    <int>     <dbl>
##  1 Afghanistan Asia       1952    28.8  8425333       779
##  2 Afghanistan Asia       1957    30.3  9240934       821
##  3 Afghanistan Asia       1962    32.0 10267083       853
##  4 Afghanistan Asia       1967    34.0 11537966       836
##  5 Afghanistan Asia       1972    36.1 13079460       740
##  6 Afghanistan Asia       1977    38.4 14880372       786
##  7 Afghanistan Asia       1982    39.9 12881816       978
##  8 Afghanistan Asia       1987    40.8 13867957       852
##  9 Afghanistan Asia       1992    41.7 16317921       649
## 10 Afghanistan Asia       1997    41.8 22227415       635
## # ... with 1,694 more rows
…
